{
  "env": {
    "TAGS": "not (@skip or @stub_only)",
    "stubbing": false,
    "CHORES_URL": "http://localhost:8080"
  },
  "viewportHeight": 896,
  "viewportWidth": 414,
  "baseUrl": "http://localhost:8080",
  "testFiles": "**/*.feature"
}